Predicting Location via Indoor Positioning Systems
…
Now we’re ready to generate the results.

results <- map2_dfr(Mlist,
                    orientations,
                    find_prob,
                    similarity_angle = 70,
                    train = offline,
                    .id = 'point')

results

## # A tibble: 10,292 x 4
##    point  posX  posY         pi
##    <chr> <dbl> <dbl>      <dbl>
##  1     1     0     4 0.13763012
##  2     1     1     2 0.13749940
##  3     1     2     4 0.09957900
##  4     1     1     5 0.09748840
##  5     1     0     0 0.09092198
##  6     1     2     1 0.08466351
##  7     1     2     2 0.06825941
##  8     1     2     3 0.04625553
##  9     1     0     2 0.04341196
## 10     1     0     1 0.03877661
## # ... with 10,282 more rows
…
