Predicting Location via Indoor Positioning Systems
…
  data %>%
    filter(angle %in% angles) %>% 
    ungroup()
}

This function has 3 parameters: angleNewObs, the angle of the new observation; signals, the training data, i.e., data in the format of offline_summary; and m, the number of angles to include from signals. The function returns a data frame that matches offline_subset from above.

We can test our function for an angle of 130 degrees and m of 3, i.e., we aggregate the offline data for angles of 90, 135, and 180. We do this with

train130 <- select_train(130, train, m = 3)

The results, slightly reformatted for readability, are:

## # A tibble: 498 x 9
##     posX  posY  angle `:c0` `:c6` `:81` `:8a` `:8d` `:90`
##    <dbl> <dbl> <fctr> <dbl> <dbl> <dbl> <dbl> <dbl> <dbl>
##  1     0     0     90   -51   -63   -64   -34   -63   -55
##  2     0     0    135   -52   -67   -63   -39   -64   -54
##  3     0     0    180   -55   -68   -62   -34   -66   -56
##  4     0     1     90   -55   -66   -64   -40   -64   -60
##  5     0     1    135   -54   -66   -64   -41   -65   -58
##  6     0     1    180   -50   -64   -63   -37   -68   -59
##  7     0     2     90   -54   -61   -61   -46   -58   -51
##  8     0     2    135   -56   -62   -65   -39   -61   -50
##  9     0     2    180   -54   -60   -61   -48   -61   -57
## 10     0     3     90   -58   -61   -56   -41   -65   -51
## # ... with 488 more rows
…
